<?xml version="1.0" encoding="UTF-8"?>
<session version="1.0">
<refactoring accessors="true" comment="Delete element from project &apos;first&apos;&#x0A;- Original project: &apos;first&apos;&#x0A;- Original element: &apos;web.xml&apos;" description="Delete element" element1="WebContent/WEB-INF/web.xml" elements="0" flags="589830" id="org.eclipse.jdt.ui.delete" resources="1" stamp="1488962805733" subPackages="false" version="1.0"/>
</session>