<?xml version="1.0" encoding="UTF-8"?>
<session version="1.0">
<refactoring comment="Rename compilation unit &apos;satyasai.S.java&apos; to &apos;SampleFibonacci.java&apos;&#x0A;- Original project: &apos;satyasai&apos;&#x0A;- Original element: &apos;satyasai.S.java&apos;&#x0A;- Renamed element: &apos;satyasai.SampleFibonacci.java&apos;" description="Rename compilation unit &apos;S.java&apos;" flags="2" id="org.eclipse.jdt.ui.rename.compilationunit" input="/src&lt;satyasai{S.java" name="SampleFibonacci.java" references="false" stamp="1486637056690" version="1.0"/>
</session>